{
  "project_info": {
    "project_number": "538363764802",
    "project_id": "jagapps-318806",
    "storage_bucket": "jagapps-318806.appspot.com"
  },
  "client": [
    {
      "client_info": {
        "mobilesdk_app_id": "1:538363764802:android:d04b3f8cdedffe9162cddb",
        "android_client_info": {
          "package_name": "com.jcodonuts.app"
        }
      },
      "oauth_client": [
        {
          "client_id": "538363764802-8nbcd2jf28o2lfob4e921qpmoa1n5eev.apps.googleusercontent.com",
          "client_type": 3
        }
      ],
      "api_key": [
        {
          "current_key": "AIzaSyBOWzKvrix7XyZZfuobDjLxD-lIIzuLR9Y"
        }
      ],
      "services": {
        "appinvite_service": {
          "other_platform_oauth_client": [
            {
              "client_id": "538363764802-8nbcd2jf28o2lfob4e921qpmoa1n5eev.apps.googleusercontent.com",
              "client_type": 3
            }
          ]
        }
      }
    }
  ],
  "configuration_version": "1"
}